{
    "childs": [{
               "ChildId": "1",
               "ChildName": "Child Name 1",
               "ChildPhoneNumber": "+14155552671",
               "ChildProfilePictureImageUrl": "http://www.blackenterprise.com/wp-content/blogs.dir/1/files/2011/12/black-kid-300x232.jpg",
               "ChildAge": "7",
               "ChildHairColor": "Brown",
               "ChildEyeColor": "Blue",
               "ChildGender": "Male",
               "ChildHeight": "4’5",
               "ChildWeight": "45 KG",
               "ChildNationality": "American",
               "ChildSchoolName": "Xavier’s",
               "ChildLatitude": "37.773960",
               "ChildLongitude": "-122.431277",
               "IsChildAlertActive": "1",
               "ChildSelectedInformationTypesToDisplayForParentRespondAlertToOthers": "Name,Email,Phone Number,Age,Gender,Height,Weight,Photos,Hair Color,Eye Color,Nationality,Emergency Contact Information,School Information,Best Friends Information,Location",
               "ChildSelectedInformationTypesToDisplayForAuthorityAlertToOthers": "Name,Email,Phone Number,Age,Gender,Height,Weight,Photos,Hair Color,Eye Color,Nationality,Emergency Contact Information,School Information,Best Friends Information,Location",
               "ChildSelectedInformationTypesToDisplayForKidnappingAlertToOthers": "Name,Email,Phone Number,Age,Gender,Height,Weight,Photos,Hair Color,Eye Color,Nationality,Emergency Contact Information,School Information,Best Friends Information,Location",
               "ChildSelectedInformationTypesToSendToAuthorityForAuthorityAlert": "Name,Email,Phone Number,Age,Gender,Height,Weight,Photos,Hair Color,Eye Color,Nationality,Emergency Contact Information,School Information,Best Friends Information,Location",
               "ChildSelectedInformationTypesToSendToAuthorityForKidnappingAlert": "Name,Email,Phone Number,Age,Gender,Height,Weight,Photos,Hair Color,Eye Color,Nationality,Emergency Contact Information,School Information,Best Friends Information,Location"
               }, {
               "ChildId": "2",
               "ChildName": "Child Name 2",
               "ChildPhoneNumber": "+14155552671",
               "ChildProfilePictureImageUrl": "http://www.blackenterprise.com/wp-content/blogs.dir/1/files/2011/12/black-kid-300x232.jpg",
               "ChildAge": "7",
               "ChildHairColor": "Brown",
               "ChildEyeColor": "Blue",
               "ChildGender": "Male",
               "ChildHeight": "4’5",
               "ChildWeight": "45 KG",
               "ChildNationality": "American",
               "ChildSchoolName": "Xavier’s",
               "ChildLatitude": "37.773952",
               "ChildLongitude": "-122.431295",
               "IsChildAlertActive": "0",
               "ChildSelectedInformationTypesToDisplayForParentRespondAlertToOthers": "Name,Email,Phone Number,Age,Gender,Height,Weight,Photos,Hair Color,Eye Color",
               "ChildSelectedInformationTypesToDisplayForAuthorityAlertToOthers": "Name,Email,Phone Number,Age,Gender,Height,Weight,Photos,Hair Color,Eye Color",
               "ChildSelectedInformationTypesToDisplayForKidnappingAlertToOthers": "Name,Email,Phone Number,Age,Gender,Height,Weight,Photos,Hair Color,Eye Color",
               "ChildSelectedInformationTypesToSendToAuthorityForAuthorityAlert": "Name,Email,Phone Number,Age,Gender,Height,Weight,Photos,Hair Color,Eye Color",
               "ChildSelectedInformationTypesToSendToAuthorityForKidnappingAlert": "Name,Email,Phone Number,Age,Gender,Height,Weight,Photos,Hair Color,Eye Color"
               }]
}
