{
    "parents_requests": [{
                "ParentRequestId": "1",
                "ParentName": "Brandon Boyd",
                "ParentRole": "Father",
                "ParentWorkPlaceName": "L & T",
                "ParentProfilePictureImageUrl": "https://shawnmubiru.files.wordpress.com/2013/05/nandala-passport.jpg"
                }, {
                "ParentRequestId": "1",
                "ParentName": "Brandon Boyd",
                "ParentRole": "Father",
                "ParentWorkPlaceName": "L & T",
                "ParentProfilePictureImageUrl": "https://shawnmubiru.files.wordpress.com/2013/05/nandala-passport.jpg"
                }]
}
